<svg width="48" height="48" viewBox="0 0 48 48" version="1.1" xmlns="http://www.w3.org/2000/svg">
    <title>
        arrow-left-normal-large
    </title>
    <path d="M19.8,27.8 L14.5,22.5 L19.8,17.2 M30.5,42 L30.5,22.5 L14.5,22.5" stroke="currentColor" stroke-width="1" fill="none" fill-rule="evenodd"/>
</svg>
