<svg width="24" height="24" viewBox="0 0 24 24" version="1.1" xmlns="http://www.w3.org/2000/svg">
    <title>
        arrow-down-small
    </title>
    <path d="M7 10L12.5 15.5 18 10" stroke="currentColor" stroke-width="1" fill="none" fill-rule="evenodd"/>
</svg>
