<svg width="48" height="48" viewBox="0 0 48 48" version="1.1" xmlns="http://www.w3.org/2000/svg">
    <title>
        arrow-straight-up-large
    </title>
    <path d="M17,12 L22.5,6.5 L28,12 M22.5,42 L22.5,6.5" stroke="currentColor" stroke-width="1" fill="none" fill-rule="evenodd"/>
</svg>
