<svg width="24" height="24" viewBox="0 0 24 24" version="1.1" xmlns="http://www.w3.org/2000/svg">
    <title>
        arrow-right-normal-small
    </title>
    <path d="M18.5,11.5 L6.5,11.5 L6.5,24 M14,7 L18.5,11.5 L14,16" stroke="currentColor" stroke-width="1" fill="none" fill-rule="evenodd"/>
</svg>
