<svg width="24" height="24" viewBox="0 0 24 24" version="1.1" xmlns="http://www.w3.org/2000/svg">
    <title>
        bookmark-small
    </title>
    <path d="M18.5 22.5L12 16 5.5 22.5 5.5 0.5 18.5 0.5z" stroke="currentColor" stroke-width="1" fill="none" fill-rule="evenodd"/>
</svg>
