<svg width="48" height="48" viewBox="0 0 48 48" version="1.1" xmlns="http://www.w3.org/2000/svg">
    <title>
        dealer-search-large
    </title>
    <path d="M23.5,33.5 L7.5,33.5 M20,7.5 L23.5,7.5 L23.5,21.9 M31.5,22.2 L40.8,35 M24.9,24.5 C30.6989899,24.5 35.4,19.7989899 35.4,14 C35.4,8.20101013 30.6989899,3.5 24.9,3.5 C19.1010101,3.5 14.4,8.20101013 14.4,14 C14.4,19.7989899 19.1010101,24.5 24.9,24.5 Z M23.5,27.1 L23.5,44.5 L10.5,44.5 C8.8,44.5 7.5,43.2 7.5,41.5 L7.5,7.5 L13.9,7.5" stroke="currentColor" stroke-width="1" fill="none" fill-rule="evenodd"/>
</svg>
