<svg width="24" height="24" viewBox="0 0 24 24" version="1.1" xmlns="http://www.w3.org/2000/svg">
    <title>
        dealer-request-small
    </title>
    <path d="M4,15.5 L0.5,15.5 M4,21.5 L1.5,21.5 C0.9,21.5 0.5,21.1 0.5,20.5 L0.5,0.5 L9.5,0.5 L9.5,9 M5.5,10.5 L21.5,10.5 C22.6,10.5 23.5,11.4 23.5,12.5 L23.5,23.5 L7.5,23.5 C6.4,23.5 5.5,22.6 5.5,21.5 C5.5,21.5 5.5,10.5 5.5,10.5 Z M8.5,14.9 L14.5,19.5 L20.5,14.9" stroke="currentColor" stroke-width="1" fill="none" fill-rule="evenodd"/>
</svg>
