<svg width="48" height="48" viewBox="0 0 48 48" version="1.1" xmlns="http://www.w3.org/2000/svg">
    <title>
        facebook-large
    </title>
    <path d="M20.1,20.4 L15.1,20.4 L15.1,24.8 L20.1,24.8 L20.1,38 L26,38 L26,24.8 L31.9,24.8 L31.9,20.4 L26,20.4 L26,18.6 C26,17.3 27.4,14.5 29.4,14.5 L31.8,14.5 L31.8,10.1 L26.7,10.1 C19.5,11.2 20.1,20.4 20.1,20.4 Z" fill="currentColor" fill-rule="nonzero" stroke="none" stroke-width="1"/>
</svg>
