<svg width="48" height="48" viewBox="0 0 48 48" version="1.1" xmlns="http://www.w3.org/2000/svg">
    <title>
        off-canvas-large
    </title>
    <path d="M13,30.5 L35,30.5 M13,24.5 L35,24.5 M13,18.5 L35,18.5" stroke="currentColor" stroke-width="1" fill="none" fill-rule="evenodd"/>
</svg>
