<svg width="24" height="24" viewBox="0 0 24 24" version="1.1" xmlns="http://www.w3.org/2000/svg">
    <title>
        parking-in-right-long-small
    </title>
    <path d="M12.5,24 L12.5,21.5 L4.5,21.5 C3.4,21.5 2.5,20.6 2.5,19.5 L2.5,4.5 C2.5,3.4 3.4,2.5 4.5,2.5 L12.5,2.5 L12.5,0 M20.5,0 L20.5,2.5 C20.5,5.3 18.3,7.5 15.5,7.5 L14.5,7.5 C11.7,7.5 9.5,9.7 9.5,12.5 L9.5,17.5 M13,14 L9.5,17.5 L6,14" stroke="currentColor" stroke-width="1" fill="none" fill-rule="evenodd"/>
</svg>
