<svg width="24" height="24" viewBox="0 0 24 24" version="1.1" xmlns="http://www.w3.org/2000/svg">
    <title>
        poi-favorite-small
    </title>
    <path d="M11.5,3.8 L13,6.8 L16.3,7.3 L13.9,9.6 L14.5,12.9 L11.6,11.4 L8.7,12.9 L9.3,9.6 L6.8,7.2 L10,6.7 L11.5,3.8 Z M18.5,8.5 C18.5,4.6 15.4,1.5 11.5,1.5 C7.6,1.5 4.5,4.6 4.5,8.5 C4.5,12.4 11.5,22.5 11.5,22.5 C11.5,22.5 18.5,12.4 18.5,8.5 Z" stroke="currentColor" stroke-width="1" fill="none" fill-rule="evenodd"/>
</svg>
