<svg width="48" height="48" viewBox="0 0 48 48" version="1.1" xmlns="http://www.w3.org/2000/svg">
    <title>
        resize-decrease-large
    </title>
    <path d="M8,26.5 L21.5,26.5194 L21.5,40 M5.5,42.5 L21.5,26.5 M26.4935,8 L26.4935,21.5 L40,21.5 M42.5,5.5 L26.5,21.4935" stroke="currentColor" stroke-width="1" fill="none" fill-rule="evenodd"/>
</svg>
