<svg width="48" height="48" viewBox="0 0 48 48" version="1.1" xmlns="http://www.w3.org/2000/svg">
    <title>
        rotate-image-right-large
    </title>
    <path d="M21.5,4.5 L26.5,9.5 L21.5,14.5 M5.5,28 L5.5,26.6 C5.5,22.1 7.2,17.6 10.5,14.2 C13.7,11 18.1,9.5 22.4,9.5 L26.5,9.5 M40.5,22.5 L16.5,22.5 L16.5,38.5 C16.5,40.2 17.8,41.5 19.5,41.5 L43.5,41.5 L43.5,25.5 C43.5,23.8 42.2,22.5 40.5,22.5 Z" stroke="currentColor" stroke-width="1" fill="none" fill-rule="evenodd"/>
</svg>
