<svg width="24" height="24" viewBox="0 0 24 24" version="1.1" xmlns="http://www.w3.org/2000/svg">
    <title>
        status-update-small
    </title>
    <path d="M20.5,17.5 L14.5,17.5 L14.5,23.5 M16,7.5 L20.5,7.5 L20.5,17.5 L14.5,23.5 L3.5,23.5 L3.5,7.5 L11,7.5 M15.4860024,4.22426249 L12.5,9.4 L15.4860024,4.22426249 C14.8959287,3.87650499 14.5,3.23448955 14.5,2.5 C14.5,1.3954305 15.3954305,0.5 16.5,0.5 C17.6045695,0.5 18.5,1.3954305 18.5,2.5 C18.5,3.6045695 17.6045695,4.5 16.5,4.5 C16.1299201,4.5 15.783317,4.39948361 15.4860024,4.22426249 Z" stroke="currentColor" stroke-width="1" fill="none" fill-rule="evenodd"/>
</svg>
