<svg width="24" height="24" viewBox="0 0 24 24" version="1.1" xmlns="http://www.w3.org/2000/svg">
    <title>
        discussion-small
    </title>
    <path d="M21,17.5 L6.5,17.5 L0.5,23 L0.5,4.5 C0.5,2.8 1.8,1.5 3.5,1.5 L23.5,1.5 L23.5,15 C23.6,16.3 22.6,17.4 21.2,17.5 C21.2,17.5 21.1,17.5 21,17.5 Z" stroke="white" stroke-width="1" fill="none" fill-rule="evenodd"/>
</svg>
