<svg width="48" height="48" viewBox="0 0 48 48" version="1.1" xmlns="http://www.w3.org/2000/svg">
    <title>
        favorite-large
    </title>
    <path d="M23.5 3L30.1 16.5 45 18.7 34.3 29.2 36.8 44 23.5 37 10.2 44 12.7 29.2 2 18.7 16.9 16.5z" stroke="currentColor" stroke-width="1" fill="none" fill-rule="evenodd"/>
</svg>
